Engaging and Effective Visuals with ggplot – Engaging and Effective ggplot (3)
…
What to do instead?

fredts <- as_tibble(fredts)
fredts

# A tibble: 357 × 5
   date       sp500 monbase sp500_i monbase_i
   <date>     <dbl>   <int>   <dbl>     <dbl>
 1 2009-03-11  697. 1542228    100       100 
 2 2009-03-18  767. 1693133    110.      110.
 3 2009-03-25  799. 1693133    115.      110.
 4 2009-04-01  809. 1733017    116.      112.
 5 2009-04-08  831. 1733017    119.      112.
 6 2009-04-15  852. 1789878    122.      116.
 7 2009-04-22  852. 1789878    122.      116.
 8 2009-04-29  861. 1709369    124.      111.
 9 2009-05-06  896. 1709369    129.      111.
10 2009-05-13  908. 1805373    130.      117.
# ℹ 347 more rows

Pivot the data

fredts

# A tibble: 357 × 5
   date       sp500 monbase sp500_i monbase_i
   <date>     <dbl>   <int>   <dbl>     <dbl>
 1 2009-03-11  697. 1542228    100       100 
 2 2009-03-18  767. 1693133    110.      110.
 3 2009-03-25  799. 1693133    115.      110.
 4 2009-04-01  809. 1733017    116.      112.
 5 2009-04-08  831. 1733017    119.      112.
 6 2009-04-15  852. 1789878    122.      116.
 7 2009-04-22  852. 1789878    122.      116.
 8 2009-04-29  861. 1709369    124.      111.
 9 2009-05-06  896. 1709369    129.      111.
10 2009-05-13  908. 1805373    130.      117.
# ℹ 347 more rows

Pivot the data

fredts |>
  select(date, sp500_i, monbase_i)

# A tibble: 357 × 3
   date       sp500_i monbase_i
   <date>       <dbl>     <dbl>
 1 2009-03-11    100       100 
 2 2009-03-18    110.      110.
 3 2009-03-25    115.      110.
 4 2009-04-01    116.      112.
 5 2009-04-08    119.      112.
 6 2009-04-15    122.      116.
 7 2009-04-22    122.      116.
 8 2009-04-29    124.      111.
 9 2009-05-06    129.      111.
10 2009-05-13    130.      117.
# ℹ 347 more rows

Pivot the data

fredts |>
  select(date, sp500_i, monbase_i)  |>
  pivot_longer(sp500_i:monbase_i,
               names_to = "series",
               values_to = "score")

# A tibble: 714 × 3
   date       series    score
   <date>     <chr>     <dbl>
 1 2009-03-11 sp500_i    100 
 2 2009-03-11 monbase_i  100 
 3 2009-03-18 sp500_i    110.
 4 2009-03-18 monbase_i  110.
 5 2009-03-25 sp500_i    115.
 6 2009-03-25 monbase_i  110.
 7 2009-04-01 sp500_i    116.
 8 2009-04-01 monbase_i  112.
 9 2009-04-08 sp500_i    119.
10 2009-04-08 monbase_i  112.
# ℹ 704 more rows
…
Pivot the data

fredts |>
  select(date, sp500_i, monbase_i)  |>
  pivot_longer(sp500_i:monbase_i,
               names_to = "series",
               values_to = "score") ->
  fredts_m

Make two plots

fredts_m

# A tibble: 714 × 3
   date       series    score
   <date>     <chr>     <dbl>
 1 2009-03-11 sp500_i    100 
 2 2009-03-11 monbase_i  100 
 3 2009-03-18 sp500_i    110.
 4 2009-03-18 monbase_i  110.
 5 2009-03-25 sp500_i    115.
 6 2009-03-25 monbase_i  110.
 7 2009-04-01 sp500_i    116.
 8 2009-04-01 monbase_i  112.
 9 2009-04-08 sp500_i    119.
10 2009-04-08 monbase_i  112.
# ℹ 704 more rows
…
fredts_m |>
  ggplot(mapping =
           aes(x = date,
               y = score,
               color = series)) +
  geom_line(linewidth = 2) +
  labs(x = "Date", y = "Index",
        color = "Series") ->
  p1

# The original df
fredts

# A tibble: 357 × 5
   date       sp500 monbase sp500_i monbase_i
   <date>     <dbl>   <int>   <dbl>     <dbl>
 1 2009-03-11  697. 1542228    100       100 
 2 2009-03-18  767. 1693133    110.      110.
 3 2009-03-25  799. 1693133    115.      110.
 4 2009-04-01  809. 1733017    116.      112.
 5 2009-04-08  831. 1733017    119.      112.
 6 2009-04-15  852. 1789878    122.      116.
 7 2009-04-22  852. 1789878    122.      116.
 8 2009-04-29  861. 1709369    124.      111.
 9 2009-05-06  896. 1709369    129.      111.
10 2009-05-13  908. 1805373    130.      117.
# ℹ 347 more rows
…
As always, our question is “What’s the smoothest way for me to get a tidy table of results I need to hand off to ggplot?”

For complex surveys, we use survey, the standard package for survey analysis in R, and srvyr, a helper package designed to integrate what survey can do with the Tiydverse framework.

## Load the packages
library(survey)
library(srvyr)

Example: The GSS again

This time, a small piece of the full GSS from the early 1970s to 2018.

gss_lon

# A tibble: 62,466 × 25
    year    id ballot age   degree race  sex   siblings kids  bigregion income16
   <dbl> <dbl> <labe> <lab> <fct>  <fct> <fct> <fct>    <fct> <fct>     <fct>   
 1  1972     1 NA     23    Bache… White Fema… 3        0     Midwest   <NA>    
 2  1972     2 NA     70    Lt Hi… White Male  4        4+    Midwest   <NA>    
 3  1972     3 NA     48    High … White Fema… 5        4+    Midwest   <NA>    
 4  1972     4 NA     27    Bache… White Fema… 5        0     Midwest   <NA>    
 5  1972     5 NA     61    High … White Fema… 2        2     Midwest   <NA>    
 6  1972     6 NA     26    High … White Male  1        0     Midwest   <NA>    
 7  1972     7 NA     28    High … White Male  6+       2     Midwest   <NA>    
 8  1972     8 NA     27    Bache… White Male  1        0     Midwest   <NA>    
 9  1972     9 NA     21    High … Black Fema… 2        2     South     <NA>    
10  1972    10 NA     30    High … Black Fema… 6+       4+    South     <NA>    
# ℹ 62,456 more rows
# ℹ 14 more variables: religion <fct>, marital <fct>, padeg <fct>, madeg <fct>,
#   partyid <fct>, polviews <fct>, happy <fct>, partners_rc <fct>, grass <fct>,
#   zodiac <fct>, pres12 <labelled>, wtssall <dbl>, vpsu <dbl>, vstrat <dbl>
…
Trends in the happy measure

out_hap <- gss_svy |> 
    group_by(year, happy)  |> 
    summarize(prop = survey_mean(na.rm = TRUE, vartype = "ci"))

out_hap

# A tibble: 111 × 5
# Groups:   year [28]
    year happy            prop prop_low prop_upp
   <dbl> <fct>           <dbl>    <dbl>    <dbl>
 1  1975 Very Happy    0.333   0.304     0.361  
 2  1975 Pretty Happy  0.534   0.504     0.565  
 3  1975 Not Too Happy 0.129   0.108     0.150  
 4  1975 <NA>          0.00375 0.000362  0.00714
 5  1976 Very Happy    0.348   0.321     0.376  
 6  1976 Pretty Happy  0.529   0.504     0.555  
 7  1976 Not Too Happy 0.122   0.104     0.141  
 8  1977 Very Happy    0.357   0.330     0.384  
 9  1977 Pretty Happy  0.532   0.504     0.560  
10  1977 Not Too Happy 0.110   0.0918    0.128  
# ℹ 101 more rows
…
A more complex example

gss_svy |>
  filter(year %in% seq(1976, 2016, by = 4)) |>
  group_by(year, race, degree) |>
  summarize(prop = survey_mean(na.rm = TRUE)) 

# A tibble: 162 × 5
# Groups:   year, race [30]
    year race  degree            prop prop_se
   <dbl> <fct> <fct>            <dbl>   <dbl>
 1  1976 White Lt High School 0.327   0.0160 
 2  1976 White High School    0.517   0.0161 
 3  1976 White Junior College 0.0128  0.00298
 4  1976 White Bachelor       0.101   0.00955
 5  1976 White Graduate       0.0392  0.00642
 6  1976 White <NA>           0.00285 0.00151
 7  1976 Black Lt High School 0.558   0.0603 
 8  1976 Black High School    0.335   0.0476 
 9  1976 Black Junior College 0.0423  0.0192 
10  1976 Black Bachelor       0.0577  0.0238 
# ℹ 152 more rows

Let’s put that in an object

out_yrd <- gss_svy |>
  filter(year %in% seq(1976, 2016, by = 4)) |>
  group_by(year, race, degree) |>
  summarize(prop = survey_mean(na.rm = TRUE)) 

Check the sums

out_yrd |> 
  group_by(year, race) |> 
  summarize(tot = sum(prop))

# A tibble: 30 × 3
# Groups:   year [10]
    year race    tot
   <dbl> <fct> <dbl>
 1  1976 White  1.00
 2  1976 Black  1.00
 3  1976 Other  1   
 4  1980 White  1.00
 5  1980 Black  1   
 6  1980 Other  1   
 7  1984 White  1.00
 8  1984 Black  1.00
 9  1984 Other  1   
10  1988 White  1.00
# ℹ 20 more rows
…
OK boomer

The demog package

# remotes::install_github("kjhealy/demog")
# library(demog)

okboomer

# A tibble: 1,644 × 12
    year month n_days births total_pop births_pct births_pct_day date      
   <dbl> <dbl>  <dbl>  <dbl>     <dbl>      <dbl>          <dbl> <date>    
 1  1938     1     31  51820  41215000    0.00126           40.6 1938-01-01
 2  1938     2     28  47421  41215000    0.00115           41.1 1938-02-01
 3  1938     3     31  54887  41215000    0.00133           43.0 1938-03-01
 4  1938     4     30  54623  41215000    0.00133           44.2 1938-04-01
 5  1938     5     31  56853  41215000    0.00138           44.5 1938-05-01
 6  1938     6     30  53145  41215000    0.00129           43.0 1938-06-01
 7  1938     7     31  53214  41215000    0.00129           41.6 1938-07-01
 8  1938     8     31  50444  41215000    0.00122           39.5 1938-08-01
 9  1938     9     30  50545  41215000    0.00123           40.9 1938-09-01
10  1938    10     31  50079  41215000    0.00122           39.2 1938-10-01
# ℹ 1,634 more rows
# ℹ 4 more variables: seasonal <dbl>, trend <dbl>, remainder <dbl>,
#   country <chr>

Boomer Line Graph

okboomer

# A tibble: 1,644 × 12
    year month n_days births total_pop births_pct births_pct_day date      
   <dbl> <dbl>  <dbl>  <dbl>     <dbl>      <dbl>          <dbl> <date>    
 1  1938     1     31  51820  41215000    0.00126           40.6 1938-01-01
 2  1938     2     28  47421  41215000    0.00115           41.1 1938-02-01
 3  1938     3     31  54887  41215000    0.00133           43.0 1938-03-01
 4  1938     4     30  54623  41215000    0.00133           44.2 1938-04-01
 5  1938     5     31  56853  41215000    0.00138           44.5 1938-05-01
 6  1938     6     30  53145  41215000    0.00129           43.0 1938-06-01
 7  1938     7     31  53214  41215000    0.00129           41.6 1938-07-01
 8  1938     8     31  50444  41215000    0.00122           39.5 1938-08-01
 9  1938     9     30  50545  41215000    0.00123           40.9 1938-09-01
10  1938    10     31  50079  41215000    0.00122           39.2 1938-10-01
# ℹ 1,634 more rows
# ℹ 4 more variables: seasonal <dbl>, trend <dbl>, remainder <dbl>,
#   country <chr>

Boomer Line Graph

okboomer |>
    filter(country == "United States")

# A tibble: 996 × 12
    year month n_days births total_pop births_pct births_pct_day date      
   <dbl> <dbl>  <dbl>  <dbl>     <dbl>      <dbl>          <dbl> <date>    
 1  1933     1     31 180545 125579000    0.00144           46.4 1933-01-01
 2  1933     2     28 165986 125579000    0.00132           47.2 1933-02-01
 3  1933     3     31 183762 125579000    0.00146           47.2 1933-03-01
 4  1933     4     30 171354 125579000    0.00136           45.5 1933-04-01
 5  1933     5     31 174811 125579000    0.00139           44.9 1933-05-01
 6  1933     6     30 169255 125579000    0.00135           44.9 1933-06-01
 7  1933     7     31 180880 125579000    0.00144           46.5 1933-07-01
 8  1933     8     31 181856 125579000    0.00145           46.7 1933-08-01
 9  1933     9     30 167637 125579000    0.00133           44.5 1933-09-01
10  1933    10     31 167055 125579000    0.00133           42.9 1933-10-01
# ℹ 986 more rows
# ℹ 4 more variables: seasonal <dbl>, trend <dbl>, remainder <dbl>,
#   country <chr>
…
Tiled Heatmap

okboomer

# A tibble: 1,644 × 12
    year month n_days births total_pop births_pct births_pct_day date      
   <dbl> <dbl>  <dbl>  <dbl>     <dbl>      <dbl>          <dbl> <date>    
 1  1938     1     31  51820  41215000    0.00126           40.6 1938-01-01
 2  1938     2     28  47421  41215000    0.00115           41.1 1938-02-01
 3  1938     3     31  54887  41215000    0.00133           43.0 1938-03-01
 4  1938     4     30  54623  41215000    0.00133           44.2 1938-04-01
 5  1938     5     31  56853  41215000    0.00138           44.5 1938-05-01
 6  1938     6     30  53145  41215000    0.00129           43.0 1938-06-01
 7  1938     7     31  53214  41215000    0.00129           41.6 1938-07-01
 8  1938     8     31  50444  41215000    0.00122           39.5 1938-08-01
 9  1938     9     30  50545  41215000    0.00123           40.9 1938-09-01
10  1938    10     31  50079  41215000    0.00122           39.2 1938-10-01
# ℹ 1,634 more rows
# ℹ 4 more variables: seasonal <dbl>, trend <dbl>, remainder <dbl>,
#   country <chr>

Tiled Heatmap

okboomer |>
  filter(country == "United States")

# A tibble: 996 × 12
    year month n_days births total_pop births_pct births_pct_day date      
   <dbl> <dbl>  <dbl>  <dbl>     <dbl>      <dbl>          <dbl> <date>    
 1  1933     1     31 180545 125579000    0.00144           46.4 1933-01-01
 2  1933     2     28 165986 125579000    0.00132           47.2 1933-02-01
 3  1933     3     31 183762 125579000    0.00146           47.2 1933-03-01
 4  1933     4     30 171354 125579000    0.00136           45.5 1933-04-01
 5  1933     5     31 174811 125579000    0.00139           44.9 1933-05-01
 6  1933     6     30 169255 125579000    0.00135           44.9 1933-06-01
 7  1933     7     31 180880 125579000    0.00144           46.5 1933-07-01
 8  1933     8     31 181856 125579000    0.00145           46.7 1933-08-01
 9  1933     9     30 167637 125579000    0.00133           44.5 1933-09-01
10  1933    10     31 167055 125579000    0.00133           42.9 1933-10-01
# ℹ 986 more rows
# ℹ 4 more variables: seasonal <dbl>, trend <dbl>, remainder <dbl>,
#   country <chr>
…
okboomer |>
  filter(country == "United States") |>
    mutate(year_fct =
             factor(year,
                    levels = unique(year),
                    ordered = TRUE),
           month_fct = factor(month,
                              levels = rev(c(1:12)),
                              labels = rev(c("Jan", "Feb",
                                  "Mar", "Apr", "May",
                                  "Jun", "Jul", "Aug",
                                  "Sep", "Oct", "Nov", "Dec")),
                              ordered = TRUE))

# A tibble: 996 × 14
    year month n_days births total_pop births_pct births_pct_day date      
   <dbl> <dbl>  <dbl>  <dbl>     <dbl>      <dbl>          <dbl> <date>    
 1  1933     1     31 180545 125579000    0.00144           46.4 1933-01-01
 2  1933     2     28 165986 125579000    0.00132           47.2 1933-02-01
 3  1933     3     31 183762 125579000    0.00146           47.2 1933-03-01
 4  1933     4     30 171354 125579000    0.00136           45.5 1933-04-01
 5  1933     5     31 174811 125579000    0.00139           44.9 1933-05-01
 6  1933     6     30 169255 125579000    0.00135           44.9 1933-06-01
 7  1933     7     31 180880 125579000    0.00144           46.5 1933-07-01
 8  1933     8     31 181856 125579000    0.00145           46.7 1933-08-01
 9  1933     9     30 167637 125579000    0.00133           44.5 1933-09-01
10  1933    10     31 167055 125579000    0.00133           42.9 1933-10-01
# ℹ 986 more rows
# ℹ 6 more variables: seasonal <dbl>, trend <dbl>, remainder <dbl>,
#   country <chr>, year_fct <ord>, month_fct <ord>
…
  filter(country == "United States") |>
    mutate(year_fct =
             factor(year,
                    levels = unique(year),
                    ordered = TRUE),
           month_fct = factor(month,
                              levels = rev(c(1:12)),
                              labels = rev(c("Jan", "Feb",
                                  "Mar", "Apr", "May",
                                  "Jun", "Jul", "Aug",
                                  "Sep", "Oct", "Nov", "Dec")),
                              ordered = TRUE)) |>
    select(year, month, year_fct, month_fct, everything())

# A tibble: 996 × 14
    year month year_fct month_fct n_days births total_pop births_pct
   <dbl> <dbl> <ord>    <ord>      <dbl>  <dbl>     <dbl>      <dbl>
 1  1933     1 1933     Jan           31 180545 125579000    0.00144
 2  1933     2 1933     Feb           28 165986 125579000    0.00132
 3  1933     3 1933     Mar           31 183762 125579000    0.00146
 4  1933     4 1933     Apr           30 171354 125579000    0.00136
 5  1933     5 1933     May           31 174811 125579000    0.00139
 6  1933     6 1933     Jun           30 169255 125579000    0.00135
 7  1933     7 1933     Jul           31 180880 125579000    0.00144
 8  1933     8 1933     Aug           31 181856 125579000    0.00145
 9  1933     9 1933     Sep           30 167637 125579000    0.00133
10  1933    10 1933     Oct           31 167055 125579000    0.00133
# ℹ 986 more rows
# ℹ 6 more variables: births_pct_day <dbl>, date <date>, seasonal <dbl>,
#   trend <dbl>, remainder <dbl>, country <chr>
…
Beeswarms and
bespoke labels

The cavax package

# remotes::install_github("kjhealy/cavax)
library(cavax)

cavax

# A tibble: 7,032 × 13
     code county name  type  district city  enrollment pbe_pct exempt med_exempt
    <dbl> <chr>  <chr> <chr> <chr>    <chr>      <dbl>   <dbl>  <dbl>      <dbl>
 1 1.10e5 ALAME… FAME… PUBL… ALAMEDA… NEWA…        109      13  12.8        0   
 2 6.00e6 ALAME… COX … PUBL… ALAMEDA… OAKL…        115       1   0.87       0.87
 3 6.00e6 ALAME… LAZE… PUBL… ALAMEDA… OAKL…         40       0   0          0   
 4 1.24e5 ALAME… YU M… PUBL… ALAMEDA… OAKL…         52      10   9.62       0   
 5 6.10e6 ALAME… AMEL… PUBL… ALAMEDA… ALAM…        128       2   1.56       0   
 6 6.11e6 ALAME… BAY … PUBL… ALAMEDA… ALAM…         70       1   1.43       0   
 7 6.09e6 ALAME… DONA… PUBL… ALAMEDA… ALAM…        100       3   3          0   
 8 6.09e6 ALAME… EDIS… PUBL… ALAMEDA… ALAM…         70       1   1.43       0   
 9 6.09e6 ALAME… FRAN… PUBL… ALAMEDA… ALAM…         95       1   1.05       1.05
10 6.09e6 ALAME… FRAN… PUBL… ALAMEDA… ALAM…         50       2   2          0   
# ℹ 7,022 more rows
# ℹ 3 more variables: rel_exempt <dbl>, mwc <fct>, kind <fct>
…
library(ggbeeswarm)

Aux Info Panel

library(ggbeeswarm)
make_comma <- scales::label_comma()

Aux Info Panel

library(ggbeeswarm)
make_comma <- scales::label_comma()

cavax

# A tibble: 7,032 × 13
     code county name  type  district city  enrollment pbe_pct exempt med_exempt
    <dbl> <chr>  <chr> <chr> <chr>    <chr>      <dbl>   <dbl>  <dbl>      <dbl>
 1 1.10e5 ALAME… FAME… PUBL… ALAMEDA… NEWA…        109      13  12.8        0   
 2 6.00e6 ALAME… COX … PUBL… ALAMEDA… OAKL…        115       1   0.87       0.87
 3 6.00e6 ALAME… LAZE… PUBL… ALAMEDA… OAKL…         40       0   0          0   
 4 1.24e5 ALAME… YU M… PUBL… ALAMEDA… OAKL…         52      10   9.62       0   
 5 6.10e6 ALAME… AMEL… PUBL… ALAMEDA… ALAM…        128       2   1.56       0   
 6 6.11e6 ALAME… BAY … PUBL… ALAMEDA… ALAM…         70       1   1.43       0   
 7 6.09e6 ALAME… DONA… PUBL… ALAMEDA… ALAM…        100       3   3          0   
 8 6.09e6 ALAME… EDIS… PUBL… ALAMEDA… ALAM…         70       1   1.43       0   
 9 6.09e6 ALAME… FRAN… PUBL… ALAMEDA… ALAM…         95       1   1.05       1.05
10 6.09e6 ALAME… FRAN… PUBL… ALAMEDA… ALAM…         50       2   2          0   
# ℹ 7,022 more rows
# ℹ 3 more variables: rel_exempt <dbl>, mwc <fct>, kind <fct>
…
