Engaging and Effective Visuals with ggplot – Engaging and Effective ggplot (2)
…
Piece by piece,
Layer by layer

Build your plots a piece at a time

asasec <- as_tibble(asasec)
asasec

# A tibble: 572 × 9
   Section        Sname Beginning Revenues Expenses Ending Journal  Year Members
   <fct>          <fct>     <int>    <int>    <int>  <int> <fct>   <int>   <int>
 1 Aging and the… Aging     12752    12104    12007  12849 No       2005     598
 2 Alcohol, Drug… Alco…     11933     1144      400  12677 No       2005     301
 3 Altruism and … Altr…      1139     1862     1875   1126 No       2005      NA
 4 Animals and S… Anim…       473      820     1116    177 No       2005     209
 5 Asia/Asian Am… Asia       9056     2116     1710   9462 No       2005     365
 6 Body and Embo… Body       3408     1618     1920   3106 No       2005      NA
 7 Children and … Chil…      3692     3653     3713   3632 No       2005     418
 8 Coll Behavior… CBSM       8127     3470     2704   8893 No       2005     708
 9 Communication… CITA…     17093     4800     4804  17089 No       2005     301
10 Community and… Comm…     26598    24883    23379  28102 Yes      2005     721
# ℹ 562 more rows
…
Build your plots a piece at a time

df_rich <- asasec |> filter(Year == 2014 &
                            Revenues > 7000)

Build your plots a piece at a time

df_rich <- asasec |> filter(Year == 2014 &
                            Revenues > 7000)

asasec

# A tibble: 572 × 9
   Section        Sname Beginning Revenues Expenses Ending Journal  Year Members
   <fct>          <fct>     <int>    <int>    <int>  <int> <fct>   <int>   <int>
 1 Aging and the… Aging     12752    12104    12007  12849 No       2005     598
 2 Alcohol, Drug… Alco…     11933     1144      400  12677 No       2005     301
 3 Altruism and … Altr…      1139     1862     1875   1126 No       2005      NA
 4 Animals and S… Anim…       473      820     1116    177 No       2005     209
 5 Asia/Asian Am… Asia       9056     2116     1710   9462 No       2005     365
 6 Body and Embo… Body       3408     1618     1920   3106 No       2005      NA
 7 Children and … Chil…      3692     3653     3713   3632 No       2005     418
 8 Coll Behavior… CBSM       8127     3470     2704   8893 No       2005     708
 9 Communication… CITA…     17093     4800     4804  17089 No       2005     301
10 Community and… Comm…     26598    24883    23379  28102 Yes      2005     721
# ℹ 562 more rows

Build your plots a piece at a time

df_rich <- asasec |> filter(Year == 2014 &
                            Revenues > 7000)

asasec |>
  filter(Year == 2014)

# A tibble: 52 × 9
   Section        Sname Beginning Revenues Expenses Ending Journal  Year Members
   <fct>          <fct>     <int>    <int>    <int>  <int> <fct>   <int>   <int>
 1 Aging and the… Aging     12752    12104    12007  12849 No       2014     580
 2 Alcohol, Drug… Alco…     11933     1144      400  12677 No       2014     173
 3 Altruism and … Altr…      1139     1862     1875   1126 No       2014     318
 4 Animals and S… Anim…       473      820     1116    177 No       2014     154
 5 Asia/Asian Am… Asia       9056     2116     1710   9462 No       2014     336
 6 Body and Embo… Body       3408     1618     1920   3106 No       2014     312
 7 Children and … Chil…      3692     3653     3713   3632 No       2014     421
 8 Coll Behavior… CBSM       8127     3470     2704   8893 No       2014     835
 9 Communication… CITA…     17093     4800     4804  17089 No       2014     371
10 Community and… Comm…     26598    24883    23379  28102 Yes      2014     630
# ℹ 42 more rows
…
